{
  "project_info": {
    "project_number": "87299550444",
    "firebase_url": "https://deeplinkingtest-a1fa8.firebaseio.com",
    "project_id": "deeplinkingtest-a1fa8",
    "storage_bucket": "deeplinkingtest-a1fa8.appspot.com"
  },
  "client": [
    {
      "client_info": {
        "mobilesdk_app_id": "1:87299550444:android:f7397180bf188d1d",
        "android_client_info": {
          "package_name": "com.sample.sdk_integration"
        }
      },
      "oauth_client": [
        {
          "client_id": "87299550444-qt8d1jhuhif3mp29v9a7q4ftvjvaqb0h.apps.googleusercontent.com",
          "client_type": 3
        }
      ],
      "api_key": [
        {
          "current_key": "AIzaSyANbWmH8jgjTTyR5sJ9Ux6-kswnMUWG3x4"
        }
      ],
      "services": {
        "analytics_service": {
          "status": 1
        },
        "appinvite_service": {
          "status": 1,
          "other_platform_oauth_client": []
        },
        "ads_service": {
          "status": 2
        }
      }
    },
    {
      "client_info": {
        "mobilesdk_app_id": "1:87299550444:android:2fe169962a162316",
        "android_client_info": {
          "package_name": "in.vs2.deeplinking"
        }
      },
      "oauth_client": [
        {
          "client_id": "87299550444-qt8d1jhuhif3mp29v9a7q4ftvjvaqb0h.apps.googleusercontent.com",
          "client_type": 3
        }
      ],
      "api_key": [
        {
          "current_key": "AIzaSyANbWmH8jgjTTyR5sJ9Ux6-kswnMUWG3x4"
        }
      ],
      "services": {
        "analytics_service": {
          "status": 1
        },
        "appinvite_service": {
          "status": 1,
          "other_platform_oauth_client": []
        },
        "ads_service": {
          "status": 2
        }
      }
    }
  ],
  "configuration_version": "1"
}